Parallel01Test.class
utilities\DriverFactory$Browsers.class
common\Constants.class
utilities\Driver.class
common\Config.class
stepDefinitions\testStepDefinitions.class
utilities\DriverFactory$1.class
stepDefinitions\Hooks.class
service\test.class
utilities\DriverFactory.class
